<?xml version="1.0" encoding="utf-8"?>
<!-- Generator: Adobe Illustrator 24.0.1, SVG Export Plug-In . SVG Version: 6.00 Build 0)  -->
<svg version="1.1" id="Слой_1" xmlns="http://www.w3.org/2000/svg" xmlns:xlink="http://www.w3.org/1999/xlink" x="0px" y="0px"
	 viewBox="0 0 100 50" style="enable-background:new 0 0 100 50;" xml:space="preserve">
<style type="text/css">
	.st0{fill:#2568B0;}
	.st1{fill:#FFFFFF;}
</style>
<path class="st0" d="M90,50H10C4.5,50,0,45.5,0,40V10C0,4.5,4.5,0,10,0h80c5.5,0,10,4.5,10,10v30C100,45.5,95.5,50,90,50z"/>
<g>
	<path class="st1" d="M16.6,9.3c1.2,0,2.2,0.4,3,1.2s1.2,1.7,1.2,2.9s-0.4,2.2-1.2,2.9c-0.8,0.8-1.8,1.2-3,1.2H15V21h-3V9.3H16.6z
		 M16.6,14.6c0.3,0,0.6-0.1,0.8-0.4c0.2-0.2,0.3-0.5,0.3-0.9s-0.1-0.7-0.3-0.9c-0.2-0.2-0.5-0.3-0.8-0.3H15v2.5
		C15,14.6,16.6,14.6,16.6,14.6z"/>
	<path class="st1" d="M28.1,20.9l-2-3.8H25v3.8h-3V9.3h4.7c1.2,0,2.2,0.4,3,1.1c0.8,0.8,1.2,1.7,1.2,2.9c0,0.7-0.2,1.3-0.5,1.9
		c-0.4,0.6-0.8,1.1-1.5,1.4l2.4,4.3C31.3,20.9,28.1,20.9,28.1,20.9z M25,12v2.6h1.7c0.4,0,0.7-0.1,0.9-0.4c0.2-0.2,0.4-0.6,0.4-1
		s-0.1-0.7-0.4-1c-0.3-0.1-0.6-0.2-1-0.2H25z"/>
	<path class="st1" d="M42.2,19.4c-1.2,1.2-2.6,1.8-4.4,1.8c-1.7,0-3.2-0.6-4.4-1.8s-1.8-2.6-1.8-4.3s0.6-3.2,1.8-4.3S36.2,9,37.9,9
		s3.2,0.6,4.4,1.8s1.8,2.6,1.8,4.3S43.4,18.3,42.2,19.4z M35.6,17.4c0.6,0.6,1.4,0.9,2.3,0.9s1.7-0.3,2.3-0.9s0.9-1.4,0.9-2.3
		c0-0.9-0.3-1.7-0.9-2.3c-0.6-0.6-1.4-0.9-2.3-0.9s-1.7,0.3-2.3,0.9c-0.6,0.6-0.9,1.4-0.9,2.3C34.7,16,35,16.8,35.6,17.4z"/>
	<path class="st1" d="M50.2,9.3c1.6,0,3,0.6,4.1,1.7s1.6,2.5,1.6,4.2s-0.5,3-1.6,4.2c-1.1,1.1-2.4,1.7-4.1,1.7h-4.8V9.3H50.2z
		 M50.2,18.1c0.8,0,1.5-0.3,2-0.8S53,16,53,15.2c0-0.9-0.3-1.6-0.8-2.1s-1.2-0.8-2-0.8h-1.7v5.9h1.7V18.1z"/>
	<path class="st1" d="M65,20.1c-0.9,0.7-2,1.1-3.3,1.1c-1.4,0-2.5-0.4-3.3-1.1c-0.9-0.7-1.3-1.7-1.3-3V9.3h3v7.6
		c0,1,0.5,1.5,1.6,1.5s1.6-0.5,1.6-1.5V9.3h3v7.9C66.3,18.3,65.9,19.3,65,20.1z"/>
	<path class="st1" d="M73.7,21.2c-1.8,0-3.2-0.6-4.4-1.7c-1.2-1.2-1.7-2.6-1.7-4.4s0.6-3.2,1.7-4.4C70.5,9.6,71.9,9,73.7,9
		c1.1,0,2,0.3,2.9,0.8s1.6,1.2,2.1,2l-2.6,1.5c-0.2-0.4-0.6-0.7-1-1c-0.4-0.2-0.9-0.4-1.5-0.4c-0.9,0-1.7,0.3-2.3,0.9
		c-0.6,0.6-0.9,1.4-0.9,2.3c0,0.9,0.3,1.7,0.9,2.3c0.6,0.6,1.3,0.9,2.3,0.9c0.5,0,1-0.1,1.5-0.4c0.4-0.2,0.8-0.6,1-1l2.6,1.5
		c-0.5,0.9-1.2,1.5-2.1,2C75.7,21,74.7,21.2,73.7,21.2z"/>
	<path class="st1" d="M87.9,9.3v2.9H85V21h-3v-8.8h-2.9V9.3H87.9z"/>
	<path class="st1" d="M38.7,38.1h4V41h-7V29.3h3V38.1z"/>
	<path class="st1" d="M51.3,41l-0.5-1.7h-3.9L46.4,41h-3.2L47,29.3h3.6L54.5,41H51.3z M47.6,36.7H50l-1.2-4L47.6,36.7z"/>
	<path class="st1" d="M62.7,35c1,0.6,1.5,1.5,1.5,2.6c0,1-0.4,1.9-1.1,2.5c-0.7,0.6-1.7,0.9-2.9,0.9h-4.9V29.3H60
		c1.2,0,2.1,0.3,2.8,0.9s1.1,1.4,1.1,2.4C63.8,33.6,63.4,34.4,62.7,35z M59.9,32h-1.5v1.8h1.5c0.3,0,0.5-0.1,0.7-0.2
		c0.2-0.2,0.3-0.4,0.3-0.7s-0.1-0.5-0.3-0.7C60.4,32.1,60.1,32,59.9,32z M60.2,38.3c0.3,0,0.5-0.1,0.7-0.3s0.3-0.4,0.3-0.7
		s-0.1-0.5-0.3-0.7s-0.4-0.3-0.7-0.3h-1.9v2H60.2z"/>
</g>
</svg>
